[
  {
    "articles": {
      "snows": [
        {
          "1": {
            "id": 2,
            "marque": "Burton",
            "modele": "Talent Scout",
            "taille": 160,
            "prix": 300,
            "Quantit\u00e9": 4,
            "dispo": true,
            "photo": "view\/content\/image-snows\/burton-talent-scout-snowboard-women-s-2017-138.jpg"
          },
          "2": {
            "id": 3,
            "marque": "Nidecker",
            "modele": "Tech Cold Brew",
            "taille": 180,
            "prix": 800,
            "Quantit\u00e9": 10,
            "dispo": true,
            "photo": "view\/content\/image-snows\/salomon-lotus-snowboard-women-s-2018-135.jpg"
          },
          "3": {
            "id": 4,
            "marque": "K2",
            "modele": "Rome Artifact Rocker",
            "taille": 1180,
            "prix": 560,
            "Quantit\u00e9": 0,
            "dispo": false,
            "photo": "view\/content\/image-snows\/rome-artifact-rocker-snowboard-2016-147.jpg"
          },
          "4": {
            "id": 5,
            "marque": "Rome",
            "modele": "S153CM",
            "taille": 160,
            "prix": 350,
            "Quantit\u00e9": 4,
            "dispo": true,
            "photo": "view\/content\/image-snows\/S153CM.jpg"
          },
          "6": {
            "marque": "aaa",
            "modele": "a",
            "taille": 2,
            "quantit\u00e9": 2,
            "dispo": "on",
            "id": 2,
            "photo": "upload\/0-aaa-a-lib-tech-cold-brew.jpg"
          },
          "7": {
            "marque": "a",
            "modele": "a",
            "taille": 1,
            "quantit\u00e9": 1,
            "dispo": "on",
            "id": 8,
            "photo": "upload\/0-a-a-rome-artifact-rocker-snowboard-2016-147.jpg"
          }
        }
      ]
    }
  }
]