{
  "person": [
    {
      "username": "John",
      "password": "Doe",
      "userType": 0,
      "photo": "Image\/photos_personnes\/personne0.jpg"
    },
    {
      "username": "Anna",
      "password": "Smith",
      "userType": 0,
      "photo": "Image\/photos_personnes\/personne2.jpg"
    },
    {
      "username": "Peter",
      "password": "Jones",
      "userType": 1,
      "photo": "Image\/photos_personnes\/personne3.jpg"
    },
    {
      "userType": 0,
      "username": "user",
      "password": "user"
    },
    {
      "userType": 1,
      "username": "admin",
      "password": "admin"
    }
  ]
}